{
    "prepare_queue": {
        "installed": [],
        "uninstalled": []
    },
    "config_munge": {
        "files": {}
    },
    "installed_plugins": {
        "cordova-plugin-file": {
            "PACKAGE_NAME": "com.leooliva.PhonegapCordovaJSONVIWERJV"
        },
        "nl.fellow-it.mfilechooser": {
            "PACKAGE_NAME": "com.leooliva.PhonegapCordovaJSONVIWERJV"
        },
        "cordova-plugin-device": {
            "PACKAGE_NAME": "com.leooliva.PhonegapCordovaJSONVIWERJV"
        },
        "cordova-plugin-console": {
            "PACKAGE_NAME": "com.leooliva.PhonegapCordovaJSONVIWERJV"
        },
        "cordova-plugin-file-transfer": {
            "PACKAGE_NAME": "com.leooliva.PhonegapCordovaJSONVIWERJV"
        },
        "cordova-plugin-whitelist": {
            "PACKAGE_NAME": "com.leooliva.PhonegapCordovaJSONVIWERJV"
        }
    },
    "dependent_plugins": {
        "cordova-plugin-compat": {
            "PACKAGE_NAME": "com.leooliva.PhonegapCordovaJSONVIWERJV"
        }
    }
}